tmds_2_tb.vcd
$date
	Sun Oct  1 04:03:30 2023
$end
$version
	Icarus Verilog
$end
$timescale
	1ps
$end
$scope module tmds_2_tb $end
$var wire 10 ! tmds_out [9:0] $end
$var reg 1 " clk_in $end
$var reg 2 # control_in [1:0] $end
$var reg 8 $ data_in [7:0] $end
$var reg 1 % rst_in $end
$var reg 1 & ve_in $end
$scope module uut $end
$var wire 1 " clk_in $end
$var wire 2 ' control_in [1:0] $end
$var wire 8 ( data_in [7:0] $end
$var wire 1 % rst_in $end
$var wire 1 & ve_in $end
$var wire 9 ) q_m [8:0] $end
$var reg 5 * disparity [4:0] $end
$var reg 4 + ones_count [3:0] $end
$var reg 10 , tmds_out [9:0] $end
$var reg 4 - zeros_count [3:0] $end
$scope module mtm $end
$var wire 8 . data_in [7:0] $end
$var reg 9 / qm_out [8:0] $end
$scope begin $ivl_for_loop4 $end
$var integer 32 0 i [31:0] $end
$upscope $end
$scope begin $ivl_for_loop5 $end
$var integer 32 1 i [31:0] $end
$upscope $end
$upscope $end
$scope begin $ivl_for_loop2 $end
$var integer 32 2 i [31:0] $end
$upscope $end
$scope begin $ivl_for_loop3 $end
$var integer 32 3 i [31:0] $end
$upscope $end
$upscope $end
$scope begin $ivl_for_loop0 $end
$var integer 32 4 i [31:0] $end
$upscope $end
$scope begin $ivl_for_loop1 $end
$var integer 32 5 i [31:0] $end
$upscope $end
$upscope $end
$enddefinitions $end
$comment Show the parameter values. $end
$dumpall
$end
#0
$dumpvars
b0 5
b0 4
b1000 3
b1000 2
b1000 1
bx 0
b100000000 /
b0 .
b1000 -
bx ,
b0 +
b0 *
b100000000 )
b0 (
b0 '
1&
1%
b0 $
b0 #
0"
bx !
$end
#5000
b0 !
b0 ,
1"
#10000
0"
0%
#15000
b100000000 !
b100000000 ,
b11000 *
1"
#20000
b1000 3
b1000 +
b1000 2
b0 -
b111111111 )
b111111111 /
b1000 1
0"
b1 $
b1 (
b1 .
b1 4
#25000
b0 *
b111111111 !
b111111111 ,
1"
#30000
b1 -
b1000 3
b1000 2
b111 +
b111111110 )
b111111110 /
b1000 1
0"
b10 $
b10 (
b10 .
b10 4
#35000
b111111110 !
b111111110 ,
b110 *
1"
#40000
b1000 3
b1000 2
b111 -
b1 +
b100000001 )
b100000001 /
b1000 1
0"
b11 $
b11 (
b11 .
b11 4
#45000
b0 *
b100000001 !
b100000001 ,
1"
#50000
b1000 3
b1000 2
b10 -
b110 +
b111111100 )
b111111100 /
b1000 1
0"
b100 $
b100 (
b100 .
b100 4
#55000
b111111100 !
b111111100 ,
b100 *
1"
#60000
b1000 3
b1000 2
b110 -
b10 +
b100000011 )
b100000011 /
b1000 1
0"
b101 $
b101 (
b101 .
b101 4
#65000
b0 *
b100000011 !
b100000011 ,
1"
#70000
b1000 3
b1000 2
b111 -
b1 +
b100000010 )
b100000010 /
b1000 1
0"
b110 $
b110 (
b110 .
b110 4
#75000
b100000010 !
b100000010 ,
b11010 *
1"
#80000
b1000 3
b1000 2
b1 -
b111 +
b111111101 )
b111111101 /
b1000 1
0"
b111 $
b111 (
b111 .
b111 4
#85000
b0 *
b111111101 !
b111111101 ,
1"
#90000
b1000 3
b1000 2
b11 -
b101 +
b111111000 )
b111111000 /
b1000 1
0"
b1000 $
b1000 (
b1000 .
b1000 4
#95000
b111111000 !
b111111000 ,
b10 *
1"
#100000
b1000 3
b1000 2
b101 -
b11 +
b100000111 )
b100000111 /
b1000 1
0"
b1001 $
b1001 (
b1001 .
b1001 4
#105000
b0 *
b100000111 !
b100000111 ,
1"
#110000
b1000 3
b1000 2
b110 -
b10 +
b100000110 )
b100000110 /
b1000 1
0"
b1010 $
b1010 (
b1010 .
b1010 4
#115000
b100000110 !
b100000110 ,
b11100 *
1"
#120000
b1000 3
b1000 2
b10 -
b110 +
b111111001 )
b111111001 /
b1000 1
0"
b1011 $
b1011 (
b1011 .
b1011 4
#125000
b0 *
b111111001 !
b111111001 ,
1"
#130000
b1000 3
b1000 2
b111 -
b1 +
b100000100 )
b100000100 /
b1000 1
0"
b1100 $
b1100 (
b1100 .
b1100 4
#135000
b100000100 !
b100000100 ,
b11010 *
1"
#140000
b1000 3
b1000 2
b1 -
b111 +
b111111011 )
b111111011 /
b1000 1
0"
b1101 $
b1101 (
b1101 .
b1101 4
#145000
b0 *
b111111011 !
b111111011 ,
1"
#150000
b1000 3
b1000 2
b10 -
b110 +
b111111010 )
b111111010 /
b1000 1
0"
b1110 $
b1110 (
b1110 .
b1110 4
#155000
b111111010 !
b111111010 ,
b100 *
1"
#160000
b1000 3
b1000 2
b110 -
b10 +
b100000101 )
b100000101 /
b1000 1
0"
b1111 $
b1111 (
b1111 .
b1111 4
#165000
b0 *
b100000101 !
b100000101 ,
1"
#170000
b1000 3
b1000 2
b100 -
b100 +
b111110000 )
b111110000 /
b1000 1
0"
b10000 $
b10000 (
b10000 .
b10000 4
#175000
b111110000 !
b111110000 ,
1"
#180000
b1000 3
b1000 2
b100 -
b100 +
b100001111 )
b100001111 /
b1000 1
0"
b10001 $
b10001 (
b10001 .
b10001 4
#185000
b100001111 !
b100001111 ,
1"
#190000
b1000 3
b1000 2
b101 -
b11 +
b100001110 )
b100001110 /
b1000 1
0"
b10010 $
b10010 (
b10010 .
b10010 4
#195000
b100001110 !
b100001110 ,
b11110 *
1"
#200000
b1000 3
b1000 2
b11 -
b101 +
b111110001 )
b111110001 /
b1000 1
0"
b10011 $
b10011 (
b10011 .
b10011 4
#205000
b0 *
b111110001 !
b111110001 ,
1"
#210000
b1000 3
b1000 2
b110 -
b10 +
b100001100 )
b100001100 /
b1000 1
0"
b10100 $
b10100 (
b10100 .
b10100 4
#215000
b100001100 !
b100001100 ,
b11100 *
1"
#220000
b1000 3
b1000 2
b10 -
b110 +
b111110011 )
b111110011 /
b1000 1
0"
b10101 $
b10101 (
b10101 .
b10101 4
#225000
b0 *
b111110011 !
b111110011 ,
1"
#230000
b1000 3
b1000 2
b11 -
b101 +
b111110010 )
b111110010 /
b1000 1
0"
b10110 $
b10110 (
b10110 .
b10110 4
#235000
b111110010 !
b111110010 ,
b10 *
1"
#240000
b1000 3
b1000 2
b101 -
b11 +
b100001101 )
b100001101 /
b1000 1
0"
b10111 $
b10111 (
b10111 .
b10111 4
#245000
b0 *
b100001101 !
b100001101 ,
1"
#250000
b1000 3
b1000 2
b111 -
b1 +
b100001000 )
b100001000 /
b1000 1
0"
b11000 $
b11000 (
b11000 .
b11000 4
#255000
b100001000 !
b100001000 ,
b11010 *
1"
#260000
b1000 3
b1000 2
b1 -
b111 +
b111110111 )
b111110111 /
b1000 1
0"
b11001 $
b11001 (
b11001 .
b11001 4
#265000
b0 *
b111110111 !
b111110111 ,
1"
#270000
b1000 3
b1000 2
b10 -
b110 +
b111110110 )
b111110110 /
b1000 1
0"
b11010 $
b11010 (
b11010 .
b11010 4
#275000
b111110110 !
b111110110 ,
b100 *
1"
#280000
b1000 3
b1000 2
b110 -
b10 +
b100001001 )
b100001001 /
b1000 1
0"
b11011 $
b11011 (
b11011 .
b11011 4
#285000
b0 *
b100001001 !
b100001001 ,
1"
#290000
b1000 3
b1000 2
b11 -
b101 +
b111110100 )
b111110100 /
b1000 1
0"
b11100 $
b11100 (
b11100 .
b11100 4
#295000
b111110100 !
b111110100 ,
b10 *
1"
#300000
b1000 3
b1000 2
b101 -
b11 +
b100001011 )
b100001011 /
b1000 1
0"
b11101 $
b11101 (
b11101 .
b11101 4
#305000
b0 *
b100001011 !
b100001011 ,
1"
#310000
b1000 3
b1000 2
b110 -
b10 +
b10100000 )
b10100000 /
b1000 0
0"
b11110 $
b11110 (
b11110 .
b11110 4
#315000
b1001011111 !
b1001011111 ,
b100 *
1"
#320000
b1000 3
b1000 2
b10 -
b110 +
b1011111 )
b1011111 /
b1000 0
0"
b11111 $
b11111 (
b11111 .
b11111 4
#325000
b0 *
b1010100000 !
b1010100000 ,
1"
#330000
b1000 3
b1000 2
b101 -
b11 +
b111100000 )
b111100000 /
b1000 1
0"
b100000 $
b100000 (
b100000 .
b100000 4
#335000
b111100000 !
b111100000 ,
b11110 *
1"
#340000
b1000 3
b1000 2
b11 -
b101 +
b100011111 )
b100011111 /
b1000 1
0"
b100001 $
b100001 (
b100001 .
b100001 4
#345000
b0 *
b100011111 !
b100011111 ,
1"
#350000
b1000 3
b1000 2
b100 -
b100 +
b100011110 )
b100011110 /
b1000 1
0"
b100010 $
b100010 (
b100010 .
b100010 4
#355000
b100011110 !
b100011110 ,
1"
#360000
b1000 3
b1000 2
b100 -
b100 +
b111100001 )
b111100001 /
b1000 1
0"
b100011 $
b100011 (
b100011 .
b100011 4
#365000
b111100001 !
b111100001 ,
1"
#370000
b1000 3
b1000 2
b101 -
b11 +
b100011100 )
b100011100 /
b1000 1
0"
b100100 $
b100100 (
b100100 .
b100100 4
#375000
b100011100 !
b100011100 ,
b11110 *
1"
#380000
b1000 3
b1000 2
b11 -
b101 +
b111100011 )
b111100011 /
b1000 1
0"
b100101 $
b100101 (
b100101 .
b100101 4
#385000
b0 *
b111100011 !
b111100011 ,
1"
#390000
b1000 3
b1000 2
b100 -
b100 +
b111100010 )
b111100010 /
b1000 1
0"
b100110 $
b100110 (
b100110 .
b100110 4
#395000
b111100010 !
b111100010 ,
1"
#400000
b1000 3
b1000 2
b100 -
b100 +
b100011101 )
b100011101 /
b1000 1
0"
b100111 $
b100111 (
b100111 .
b100111 4
#405000
b100011101 !
b100011101 ,
1"
#410000
b1000 3
b1000 2
b110 -
b10 +
b100011000 )
b100011000 /
b1000 1
0"
b101000 $
b101000 (
b101000 .
b101000 4
#415000
b100011000 !
b100011000 ,
b11100 *
1"
#420000
b1000 3
b1000 2
b10 -
b110 +
b111100111 )
b111100111 /
b1000 1
0"
b101001 $
b101001 (
b101001 .
b101001 4
#425000
b0 *
b111100111 !
b111100111 ,
1"
#430000
b1000 3
b1000 2
b11 -
b101 +
b111100110 )
b111100110 /
b1000 1
0"
b101010 $
b101010 (
b101010 .
b101010 4
#435000
b111100110 !
b111100110 ,
b10 *
1"
#440000
b1000 3
b1000 2
b101 -
b11 +
b100011001 )
b100011001 /
b1000 1
0"
b101011 $
b101011 (
b101011 .
b101011 4
#445000
b0 *
b100011001 !
b100011001 ,
1"
#450000
b1000 3
b1000 2
b100 -
b100 +
b111100100 )
b111100100 /
b1000 1
0"
b101100 $
b101100 (
b101100 .
b101100 4
#455000
b111100100 !
b111100100 ,
1"
#460000
b1000 3
b1000 2
b100 -
b100 +
b100011011 )
b100011011 /
b1000 1
0"
b101101 $
b101101 (
b101101 .
b101101 4
#465000
b100011011 !
b100011011 ,
1"
#470000
b1000 3
b1000 2
b101 -
b11 +
b10110000 )
b10110000 /
b1000 0
0"
b101110 $
b101110 (
b101110 .
b101110 4
#475000
b1001001111 !
b1001001111 ,
b10 *
1"
#480000
b1000 3
b1000 2
b11 -
b101 +
b1001111 )
b1001111 /
b1000 0
0"
b101111 $
b101111 (
b101111 .
b101111 4
#485000
b0 *
b1010110000 !
b1010110000 ,
1"
#490000
b1000 3
b1000 2
b111 -
b1 +
b100010000 )
b100010000 /
b1000 1
0"
b110000 $
b110000 (
b110000 .
b110000 4
#495000
b100010000 !
b100010000 ,
b11010 *
1"
#500000
b1000 3
b1000 2
b1 -
b111 +
b111101111 )
b111101111 /
b1000 1
0"
b110001 $
b110001 (
b110001 .
b110001 4
#505000
b0 *
b111101111 !
b111101111 ,
1"
#510000
b1000 3
b1000 2
b10 -
b110 +
b111101110 )
b111101110 /
b1000 1
0"
b110010 $
b110010 (
b110010 .
b110010 4
#515000
b111101110 !
b111101110 ,
b100 *
1"
#520000
b1000 3
b1000 2
b110 -
b10 +
b100010001 )
b100010001 /
b1000 1
0"
b110011 $
b110011 (
b110011 .
b110011 4
#525000
b0 *
b100010001 !
b100010001 ,
1"
#530000
b1000 3
b1000 2
b11 -
b101 +
b111101100 )
b111101100 /
b1000 1
0"
b110100 $
b110100 (
b110100 .
b110100 4
#535000
b111101100 !
b111101100 ,
b10 *
1"
#540000
b1000 3
b1000 2
b101 -
b11 +
b100010011 )
b100010011 /
b1000 1
0"
b110101 $
b110101 (
b110101 .
b110101 4
#545000
b0 *
b100010011 !
b100010011 ,
1"
#550000
b1000 3
b1000 2
b100 -
b100 +
b10111000 )
b10111000 /
b1000 0
0"
b110110 $
b110110 (
b110110 .
b110110 4
#555000
b1001000111 !
b1001000111 ,
1"
#560000
b1000 3
b1000 2
b100 -
b100 +
b1000111 )
b1000111 /
b1000 0
0"
b110111 $
b110111 (
b110111 .
b110111 4
#565000
b1010111000 !
b1010111000 ,
1"
#570000
b1000 3
b1000 2
b100 -
b100 +
b111101000 )
b111101000 /
b1000 1
0"
b111000 $
b111000 (
b111000 .
b111000 4
#575000
b111101000 !
b111101000 ,
1"
#580000
b1000 3
b1000 2
b100 -
b100 +
b100010111 )
b100010111 /
b1000 1
0"
b111001 $
b111001 (
b111001 .
b111001 4
#585000
b100010111 !
b100010111 ,
1"
#590000
b1000 3
b1000 2
b11 -
b101 +
b10111100 )
b10111100 /
b1000 0
0"
b111010 $
b111010 (
b111010 .
b111010 4
#595000
b1001000011 !
b1001000011 ,
b11110 *
1"
#600000
b1000 3
b1000 2
b101 -
b11 +
b1000011 )
b1000011 /
b1000 0
0"
b111011 $
b111011 (
b111011 .
b111011 4
#605000
b0 *
b1010111100 !
b1010111100 ,
1"
#610000
b1000 3
b1000 2
b10 -
b110 +
b10111110 )
b10111110 /
b1000 0
0"
b111100 $
b111100 (
b111100 .
b111100 4
#615000
b1001000001 !
b1001000001 ,
b11100 *
1"
#620000
b1000 3
b1000 2
b110 -
b10 +
b1000001 )
b1000001 /
b1000 0
0"
b111101 $
b111101 (
b111101 .
b111101 4
#625000
b0 *
b1010111110 !
b1010111110 ,
1"
#630000
b1000 3
b1000 2
b111 -
b1 +
b1000000 )
b1000000 /
b1000 0
0"
b111110 $
b111110 (
b111110 .
b111110 4
#635000
b1010111111 !
b1010111111 ,
b110 *
1"
#640000
b1000 3
b1000 2
b1 -
b111 +
b10111111 )
b10111111 /
b1000 0
0"
b111111 $
b111111 (
b111111 .
b111111 4
#645000
b0 *
b1001000000 !
b1001000000 ,
1"
#650000
b1000 3
b1000 2
b110 -
b10 +
b111000000 )
b111000000 /
b1000 1
0"
b1000000 $
b1000000 (
b1000000 .
b1000000 4
#655000
b111000000 !
b111000000 ,
b11100 *
1"
#660000
b1000 3
b1000 2
b10 -
b110 +
b100111111 )
b100111111 /
b1000 1
0"
b1000001 $
b1000001 (
b1000001 .
b1000001 4
#665000
b0 *
b100111111 !
b100111111 ,
1"
#670000
b1000 3
b1000 2
b11 -
b101 +
b100111110 )
b100111110 /
b1000 1
0"
b1000010 $
b1000010 (
b1000010 .
b1000010 4
#675000
b100111110 !
b100111110 ,
b10 *
1"
#680000
b1000 3
b1000 2
b101 -
b11 +
b111000001 )
b111000001 /
b1000 1
0"
b1000011 $
b1000011 (
b1000011 .
b1000011 4
#685000
b0 *
b111000001 !
b111000001 ,
1"
#690000
b1000 3
b1000 2
b100 -
b100 +
b100111100 )
b100111100 /
b1000 1
0"
b1000100 $
b1000100 (
b1000100 .
b1000100 4
#695000
b100111100 !
b100111100 ,
1"
#700000
b1000 3
b1000 2
b100 -
b100 +
b111000011 )
b111000011 /
b1000 1
0"
b1000101 $
b1000101 (
b1000101 .
b1000101 4
#705000
b111000011 !
b111000011 ,
1"
#710000
b1000 3
b1000 2
b101 -
b11 +
b111000010 )
b111000010 /
b1000 1
0"
b1000110 $
b1000110 (
b1000110 .
b1000110 4
#715000
b111000010 !
b111000010 ,
b11110 *
1"
#720000
b1000 3
b1000 2
b11 -
b101 +
b100111101 )
b100111101 /
b1000 1
0"
b1000111 $
b1000111 (
b1000111 .
b1000111 4
#725000
b0 *
b100111101 !
b100111101 ,
1"
#730000
b1000 3
b1000 2
b101 -
b11 +
b100111000 )
b100111000 /
b1000 1
0"
b1001000 $
b1001000 (
b1001000 .
b1001000 4
#735000
b100111000 !
b100111000 ,
b11110 *
1"
#740000
b1000 3
b1000 2
b11 -
b101 +
b111000111 )
b111000111 /
b1000 1
0"
b1001001 $
b1001001 (
b1001001 .
b1001001 4
#745000
b0 *
b111000111 !
b111000111 ,
1"
#750000
b1000 3
b1000 2
b100 -
b100 +
b111000110 )
b111000110 /
b1000 1
0"
b1001010 $
b1001010 (
b1001010 .
b1001010 4
#755000
b111000110 !
b111000110 ,
1"
#760000
b1000 3
b1000 2
b100 -
b100 +
b100111001 )
b100111001 /
b1000 1
0"
b1001011 $
b1001011 (
b1001011 .
b1001011 4
#765000
b100111001 !
b100111001 ,
1"
#770000
b1000 3
b1000 2
b101 -
b11 +
b111000100 )
b111000100 /
b1000 1
0"
b1001100 $
b1001100 (
b1001100 .
b1001100 4
#775000
b111000100 !
b111000100 ,
b11110 *
1"
#780000
b1000 3
b1000 2
b11 -
b101 +
b100111011 )
b100111011 /
b1000 1
0"
b1001101 $
b1001101 (
b1001101 .
b1001101 4
#785000
b0 *
b100111011 !
b100111011 ,
1"
#790000
b1000 3
b1000 2
b110 -
b10 +
b10010000 )
b10010000 /
b1000 0
0"
b1001110 $
b1001110 (
b1001110 .
b1001110 4
#795000
b1001101111 !
b1001101111 ,
b100 *
1"
#800000
b1000 3
b1000 2
b10 -
b110 +
b1101111 )
b1101111 /
b1000 0
0"
b1001111 $
b1001111 (
b1001111 .
b1001111 4
#805000
b0 *
b1010010000 !
b1010010000 ,
1"
#810000
b1000 3
b1000 2
b110 -
b10 +
b100110000 )
b100110000 /
b1000 1
0"
b1010000 $
b1010000 (
b1010000 .
b1010000 4
#815000
b100110000 !
b100110000 ,
b11100 *
1"
#820000
b1000 3
b1000 2
b10 -
b110 +
b111001111 )
b111001111 /
b1000 1
0"
b1010001 $
b1010001 (
b1010001 .
b1010001 4
#825000
b0 *
b111001111 !
b111001111 ,
1"
#830000
b1000 3
b1000 2
b11 -
b101 +
b111001110 )
b111001110 /
b1000 1
0"
b1010010 $
b1010010 (
b1010010 .
b1010010 4
#835000
b111001110 !
b111001110 ,
b10 *
1"
#840000
b1000 3
b1000 2
b101 -
b11 +
b100110001 )
b100110001 /
b1000 1
0"
b1010011 $
b1010011 (
b1010011 .
b1010011 4
#845000
b0 *
b100110001 !
b100110001 ,
1"
#850000
b1000 3
b1000 2
b100 -
b100 +
b111001100 )
b111001100 /
b1000 1
0"
b1010100 $
b1010100 (
b1010100 .
b1010100 4
#855000
b111001100 !
b111001100 ,
1"
#860000
b1000 3
b1000 2
b100 -
b100 +
b100110011 )
b100110011 /
b1000 1
0"
b1010101 $
b1010101 (
b1010101 .
b1010101 4
#865000
b100110011 !
b100110011 ,
1"
#870000
b1000 3
b1000 2
b101 -
b11 +
b10011000 )
b10011000 /
b1000 0
0"
b1010110 $
b1010110 (
b1010110 .
b1010110 4
#875000
b1001100111 !
b1001100111 ,
b10 *
1"
#880000
b1000 3
b1000 2
b11 -
b101 +
b1100111 )
b1100111 /
b1000 0
0"
b1010111 $
b1010111 (
b1010111 .
b1010111 4
#885000
b0 *
b1010011000 !
b1010011000 ,
1"
#890000
b1000 3
b1000 2
b101 -
b11 +
b111001000 )
b111001000 /
b1000 1
0"
b1011000 $
b1011000 (
b1011000 .
b1011000 4
#895000
b111001000 !
b111001000 ,
b11110 *
1"
#900000
b1000 3
b1000 2
b11 -
b101 +
b100110111 )
b100110111 /
b1000 1
0"
b1011001 $
b1011001 (
b1011001 .
b1011001 4
#905000
b0 *
b100110111 !
b100110111 ,
1"
#910000
b1000 3
b1000 2
b100 -
b100 +
b10011100 )
b10011100 /
b1000 0
0"
b1011010 $
b1011010 (
b1011010 .
b1011010 4
#915000
b1001100011 !
b1001100011 ,
1"
#920000
b1000 3
b1000 2
b100 -
b100 +
b1100011 )
b1100011 /
b1000 0
0"
b1011011 $
b1011011 (
b1011011 .
b1011011 4
#925000
b1010011100 !
b1010011100 ,
1"
#930000
b1000 3
b1000 2
b11 -
b101 +
b10011110 )
b10011110 /
b1000 0
0"
b1011100 $
b1011100 (
b1011100 .
b1011100 4
#935000
b1001100001 !
b1001100001 ,
b11110 *
1"
#940000
b1000 3
b1000 2
b101 -
b11 +
b1100001 )
b1100001 /
b1000 0
0"
b1011101 $
b1011101 (
b1011101 .
b1011101 4
#945000
b0 *
b1010011110 !
b1010011110 ,
1"
#950000
b1000 3
b1000 2
b110 -
b10 +
b1100000 )
b1100000 /
b1000 0
0"
b1011110 $
b1011110 (
b1011110 .
b1011110 4
#955000
b1010011111 !
b1010011111 ,
b100 *
1"
#960000
b1000 3
b1000 2
b10 -
b110 +
b10011111 )
b10011111 /
b1000 0
0"
b1011111 $
b1011111 (
b1011111 .
b1011111 4
#965000
b0 *
b1001100000 !
b1001100000 ,
1"
#970000
b1000 3
b1000 2
b111 -
b1 +
b100100000 )
b100100000 /
b1000 1
0"
b1100000 $
b1100000 (
b1100000 .
b1100000 4
#975000
b100100000 !
b100100000 ,
b11010 *
1"
#980000
b1000 3
b1000 2
b1 -
b111 +
b111011111 )
b111011111 /
b1000 1
0"
b1100001 $
b1100001 (
b1100001 .
b1100001 4
#985000
b0 *
b111011111 !
b111011111 ,
1"
#990000
b1000 3
b1000 2
b10 -
b110 +
b111011110 )
b111011110 /
b1000 1
0"
b1100010 $
b1100010 (
b1100010 .
b1100010 4
#995000
b111011110 !
b111011110 ,
b100 *
1"
#1000000
b1000 3
b1000 2
b110 -
b10 +
b100100001 )
b100100001 /
b1000 1
0"
b1100011 $
b1100011 (
b1100011 .
b1100011 4
#1005000
b0 *
b100100001 !
b100100001 ,
1"
#1010000
b1000 3
b1000 2
b11 -
b101 +
b111011100 )
b111011100 /
b1000 1
0"
b1100100 $
b1100100 (
b1100100 .
b1100100 4
#1015000
b111011100 !
b111011100 ,
b10 *
1"
#1020000
b1000 3
b1000 2
b101 -
b11 +
b100100011 )
b100100011 /
b1000 1
0"
b1100101 $
b1100101 (
b1100101 .
b1100101 4
#1025000
b0 *
b100100011 !
b100100011 ,
1"
#1030000
b1000 3
b1000 2
b110 -
b10 +
b10001000 )
b10001000 /
b1000 0
0"
b1100110 $
b1100110 (
b1100110 .
b1100110 4
#1035000
b1001110111 !
b1001110111 ,
b100 *
1"
#1040000
b1000 3
b1000 2
b10 -
b110 +
b1110111 )
b1110111 /
b1000 0
0"
b1100111 $
b1100111 (
b1100111 .
b1100111 4
#1045000
b0 *
b1010001000 !
b1010001000 ,
1"
#1050000
b1000 3
b1000 2
b100 -
b100 +
b111011000 )
b111011000 /
b1000 1
0"
b1101000 $
b1101000 (
b1101000 .
b1101000 4
#1055000
b111011000 !
b111011000 ,
1"
#1060000
b1000 3
b1000 2
b100 -
b100 +
b100100111 )
b100100111 /
b1000 1
0"
b1101001 $
b1101001 (
b1101001 .
b1101001 4
#1065000
b100100111 !
b100100111 ,
1"
#1070000
b1000 3
b1000 2
b101 -
b11 +
b10001100 )
b10001100 /
b1000 0
0"
b1101010 $
b1101010 (
b1101010 .
b1101010 4
#1075000
b1001110011 !
b1001110011 ,
b10 *
1"
#1080000
b1000 3
b1000 2
b11 -
b101 +
b1110011 )
b1110011 /
b1000 0
0"
b1101011 $
b1101011 (
b1101011 .
b1101011 4
#1085000
b0 *
b1010001100 !
b1010001100 ,
1"
#1090000
b1000 3
b1000 2
b100 -
b100 +
b10001110 )
b10001110 /
b1000 0
0"
b1101100 $
b1101100 (
b1101100 .
b1101100 4
#1095000
b1001110001 !
b1001110001 ,
1"
#1100000
b1000 3
b1000 2
b100 -
b100 +
b1110001 )
b1110001 /
b1000 0
0"
b1101101 $
b1101101 (
b1101101 .
b1101101 4
#1105000
b1010001110 !
b1010001110 ,
1"
#1110000
b1000 3
b1000 2
b101 -
b11 +
b1110000 )
b1110000 /
b1000 0
0"
b1101110 $
b1101110 (
b1101110 .
b1101110 4
#1115000
b1010001111 !
b1010001111 ,
b10 *
1"
#1120000
b1000 3
b1000 2
b11 -
b101 +
b10001111 )
b10001111 /
b1000 0
0"
b1101111 $
b1101111 (
b1101111 .
b1101111 4
#1125000
b0 *
b1001110000 !
b1001110000 ,
1"
#1130000
b1000 3
b1000 2
b101 -
b11 +
b111010000 )
b111010000 /
b1000 1
0"
b1110000 $
b1110000 (
b1110000 .
b1110000 4
#1135000
b111010000 !
b111010000 ,
b11110 *
1"
#1140000
b1000 3
b1000 2
b11 -
b101 +
b100101111 )
b100101111 /
b1000 1
0"
b1110001 $
b1110001 (
b1110001 .
b1110001 4
#1145000
b0 *
b100101111 !
b100101111 ,
1"
#1150000
b1000 3
b1000 2
b110 -
b10 +
b10000100 )
b10000100 /
b1000 0
0"
b1110010 $
b1110010 (
b1110010 .
b1110010 4
#1155000
b1001111011 !
b1001111011 ,
b100 *
1"
#1160000
b1000 3
b1000 2
b10 -
b110 +
b1111011 )
b1111011 /
b1000 0
0"
b1110011 $
b1110011 (
b1110011 .
b1110011 4
#1165000
b0 *
b1010000100 !
b1010000100 ,
1"
#1170000
b1000 3
b1000 2
b101 -
b11 +
b10000110 )
b10000110 /
b1000 0
0"
b1110100 $
b1110100 (
b1110100 .
b1110100 4
#1175000
b1001111001 !
b1001111001 ,
b10 *
1"
#1180000
b1000 3
b1000 2
b11 -
b101 +
b1111001 )
b1111001 /
b1000 0
0"
b1110101 $
b1110101 (
b1110101 .
b1110101 4
#1185000
b0 *
b1010000110 !
b1010000110 ,
1"
#1190000
b1000 3
b1000 2
b100 -
b100 +
b1111000 )
b1111000 /
b1000 0
0"
b1110110 $
b1110110 (
b1110110 .
b1110110 4
#1195000
b1010000111 !
b1010000111 ,
1"
#1200000
b1000 3
b1000 2
b100 -
b100 +
b10000111 )
b10000111 /
b1000 0
0"
b1110111 $
b1110111 (
b1110111 .
b1110111 4
#1205000
b1001111000 !
b1001111000 ,
1"
#1210000
b1000 3
b1000 2
b110 -
b10 +
b10000010 )
b10000010 /
b1000 0
0"
b1111000 $
b1111000 (
b1111000 .
b1111000 4
#1215000
b1001111101 !
b1001111101 ,
b100 *
1"
#1220000
b1000 3
b1000 2
b10 -
b110 +
b1111101 )
b1111101 /
b1000 0
0"
b1111001 $
b1111001 (
b1111001 .
b1111001 4
#1225000
b0 *
b1010000010 !
b1010000010 ,
1"
#1230000
b1000 3
b1000 2
b11 -
b101 +
b1111100 )
b1111100 /
b1000 0
0"
b1111010 $
b1111010 (
b1111010 .
b1111010 4
#1235000
b1010000011 !
b1010000011 ,
b11110 *
1"
#1240000
b1000 3
b1000 2
b101 -
b11 +
b10000011 )
b10000011 /
b1000 0
0"
b1111011 $
b1111011 (
b1111011 .
b1111011 4
#1245000
b0 *
b1001111100 !
b1001111100 ,
1"
#1250000
b1000 3
b1000 2
b10 -
b110 +
b1111110 )
b1111110 /
b1000 0
0"
b1111100 $
b1111100 (
b1111100 .
b1111100 4
#1255000
b1010000001 !
b1010000001 ,
b11100 *
1"
#1260000
b1000 3
b1000 2
b110 -
b10 +
b10000001 )
b10000001 /
b1000 0
0"
b1111101 $
b1111101 (
b1111101 .
b1111101 4
#1265000
b0 *
b1001111110 !
b1001111110 ,
1"
#1270000
b1000 3
b1000 2
b111 -
b1 +
b10000000 )
b10000000 /
b1000 0
0"
b1111110 $
b1111110 (
b1111110 .
b1111110 4
#1275000
b1001111111 !
b1001111111 ,
b110 *
1"
#1280000
b1000 3
b1000 2
b1 -
b111 +
b1111111 )
b1111111 /
b1000 0
0"
b1111111 $
b1111111 (
b1111111 .
b1111111 4
#1285000
b0 *
b1010000000 !
b1010000000 ,
1"
#1290000
b1000 3
b1000 2
b111 -
b1 +
b110000000 )
b110000000 /
b1000 1
0"
b10000000 $
b10000000 (
b10000000 .
b10000000 4
#1295000
b110000000 !
b110000000 ,
b11010 *
1"
#1300000
b1000 3
b1000 2
b1 -
b111 +
b101111111 )
b101111111 /
b1000 1
0"
b10000001 $
b10000001 (
b10000001 .
b10000001 4
#1305000
b0 *
b101111111 !
b101111111 ,
1"
#1310000
b1000 3
b1000 2
b10 -
b110 +
b101111110 )
b101111110 /
b1000 1
0"
b10000010 $
b10000010 (
b10000010 .
b10000010 4
#1315000
b101111110 !
b101111110 ,
b100 *
1"
#1320000
b1000 3
b1000 2
b110 -
b10 +
b110000001 )
b110000001 /
b1000 1
0"
b10000011 $
b10000011 (
b10000011 .
b10000011 4
#1325000
b0 *
b110000001 !
b110000001 ,
1"
#1330000
b1000 3
b1000 2
b11 -
b101 +
b101111100 )
b101111100 /
b1000 1
0"
b10000100 $
b10000100 (
b10000100 .
b10000100 4
#1335000
b101111100 !
b101111100 ,
b10 *
1"
#1340000
b1000 3
b1000 2
b101 -
b11 +
b110000011 )
b110000011 /
b1000 1
0"
b10000101 $
b10000101 (
b10000101 .
b10000101 4
#1345000
b0 *
b110000011 !
b110000011 ,
1"
#1350000
b1000 3
b1000 2
b110 -
b10 +
b110000010 )
b110000010 /
b1000 1
0"
b10000110 $
b10000110 (
b10000110 .
b10000110 4
#1355000
b110000010 !
b110000010 ,
b11100 *
1"
#1360000
b1000 3
b1000 2
b10 -
b110 +
b101111101 )
b101111101 /
b1000 1
0"
b10000111 $
b10000111 (
b10000111 .
b10000111 4
#1365000
b0 *
b101111101 !
b101111101 ,
1"
#1370000
b1000 3
b1000 2
b100 -
b100 +
b101111000 )
b101111000 /
b1000 1
0"
b10001000 $
b10001000 (
b10001000 .
b10001000 4
#1375000
b101111000 !
b101111000 ,
1"
#1380000
b1000 3
b1000 2
b100 -
b100 +
b110000111 )
b110000111 /
b1000 1
0"
b10001001 $
b10001001 (
b10001001 .
b10001001 4
#1385000
b110000111 !
b110000111 ,
1"
